D:\binar\ChallengeBinar\src\main\java\com\binar\MenuImpl.java
D:\binar\ChallengeBinar\src\main\java\com\binar\Menu.java
D:\binar\ChallengeBinar\src\main\java\com\binar\ModelImpl.java
D:\binar\ChallengeBinar\src\main\java\com\binar\Model.java
D:\binar\ChallengeBinar\src\main\java\com\binar\Main.java
